Lab 1: New York Times API
…
As we can see in this graph the most common words are pretty
irrelevant. That why we need to do some transformations.

Transformation #1

Make the first transformation and delete the words that are not
helpful

# Using the Data Frame called "stop_words"
data(stop_words)
stop_words

## # A tibble: 1,149 × 2
##    word        lexicon
##    <chr>       <chr>  
##  1 a           SMART  
##  2 a's         SMART  
##  3 able        SMART  
##  4 about       SMART  
##  5 above       SMART  
##  6 according   SMART  
##  7 accordingly SMART  
##  8 across      SMART  
##  9 actually    SMART  
## 10 after       SMART  
## # … with 1,139 more rows
…
